{

  "HOME": "HOME",
  "Campaigns" : "Campaigns",
  "Votings" : "Votings",
  "Campaigns and Votings" : "Campaigns and Votings",
  "Redeem point gifts" : "Redeem point gifts",
  "Participate" : "Participate ",
  "Participation requirements" : "Participation requirements",
  "Months missions" : "Missions for this month",
  "Complete all missions and win" : "Complete all missions and win",
  "Points" : "POINTS",
  "Win" : "Win: ",
  "Details" : "Details",
  "Acquire it" : "Acquire it",
  "UserBarSignout": "Signout",
  "Email " :"Email",
  "Nickname " :"Nickname" ,
  "Firstname " :"Firstname" ,
  "Lastname " :"Lastname" ,
  "Register" :"Register" ,
  "Password " :"Password", 
  "PrimeHeader" : "Prime Insurance",
  "Achievments" : "Achievments",
  "Email" :"Email" ,
  "Birthday": "Birthday",
  "Area" :"State" ,
  "Guest" : "Guest",
  "Username" : "Username",
  "Nickname" :"Nickname",
  "Firstname" :"Firstname",
  "Lastname" :"Lastname",
  "Registration_StateHint": "Your state",
  "Login" : "Login",
  "Password" :"Password",
  "Retype password" :"Retype password", 
  "Until":"Until",
  "Year":"Year",
  "Edit profile" : "Edit profile",
  "Aquired" : "Redemption was successfull. The coupon was added to your redeemed list.",
  "resetPass" : "Please follow the instructions in the email we sent you to recover your password.",
  "Cancel": "Cancel",
  "Profile": "Profile",
  "Switch_Language" : "Switch Language",
  "howTo&RedeemMenuTitle" : "How to earn / redeem your points",
  "profileMenuTitle" : "Profile",
  "messagesMenuTitle" : "Messages",
  "favoritesMenuTitle" : "Favorites",
  "redeemedMenuTitle" : "Redeemed",
  "leaderboardsMenuTitle" : "Leaderboard",
  "forgotPassword" : "Forgot Password",
  "all" : "All",
  "giftsForRedeeming": "Redeem gifts to increase points",
  "aigliZapiou": "Egli Zappeion",
  "leaderboards" : "Leaderboard",
  "profileEdit" : "Edit Profile",
  "Disconnect" : "Signout",
  "HowToWinPoints":"How to win points",
  "HowToRedeemPoints":"How to redeem points",
  "AccompliceMissions":"Complete missions",
  "RedeemedPointsGifts":"Redeemed point gifts",
  "RedeemFirstCoupon":"Redeem first coupon",
  "RedeemAnyCoupon":"Redeem any coupon",
  "SendCouponGift":"Send coupon gift",
  "SignUpWithFacebook":"Sign up with facebook",
  "SignUpWithTwitter":"Sign up with twitter",
  "SignUp":"Sign up",
  "CompleteAchievements": "Complete achievements",
  "DAY":"Day",
  "MONTH" : "Month",
  "YEAR": "Year",
  "Join": "Join: ",
  "ReadMore": "Read More...",
  "MissionStatus_Running": "Running",
  "Information":"News",
  "Training":"Training",
  "Events":"Events",
  "Updates":"Updates",
  "Poll_AlreadyCompleted": "Already Completed",
  "Sorry": "Wrong username or password",
  "CouponStatus_All":"All",
  "CouponStatus_Active":"Active",
  "CouponStatus_Consumed":"Consumed",
  "CouponStatus_Expired":"Expired",
  "Gender": "Gender",
  "Registration_Gender_Male": "Male",
  "Registration_Gender_Female":"Female",
  "Registration_Nameday":"Name day",
  "RegisterForm email error":"Email is required",
  "RegisterForm username error":"Username is required",
  "RegisterForm name error":"Name is required",
  "RegisterForm lastnames error":"Last name is required",
  "RegisterForm password error":"Password is required",
  "RegisterForm retypepass error":"Retyping password is required",
  "RegisterForm password missmatching error":"Password mismatch",
  "Registration_BirthdayIsRequired":"Birthday is required",
  "Registration_StateIsRequired":"State is required",
  "Update_Error":"Fill all the required fields",
  "NO_MORE_COUPONS":"No more coupons",
  "Cost":"Cost"
}
